-- Merging decision tree log ---
manifest
ADDED from D:\cartExample\android\app\src\main\AndroidManifest.xml:1:1-36:12
INJECTED from D:\cartExample\android\app\src\main\AndroidManifest.xml:1:1-36:12
INJECTED from D:\cartExample\android\app\src\main\AndroidManifest.xml:1:1-36:12
INJECTED from D:\cartExample\android\app\src\main\AndroidManifest.xml:1:1-36:12
MERGED from D:\cartExample\android\app\src\main\AndroidManifest.xml:1:1-36:12
MERGED from [:react-native-splash-screen] D:\cartExample\node_modules\react-native-splash-screen\android\build\intermediates\library_manifest\debug\AndroidManifest.xml:2:1-14:12
MERGED from [:@react-native-community_async-storage] D:\cartExample\node_modules\@react-native-community\async-storage\android\build\intermediates\library_manifest\debug\AndroidManifest.xml:2:1-9:12
MERGED from [:@react-native-community_netinfo] D:\cartExample\node_modules\@react-native-community\netinfo\android\build\intermediates\library_manifest\debug\AndroidManifest.xml:2:1-12:12
MERGED from [:@react-native-community_masked-view] D:\cartExample\node_modules\@react-native-community\masked-view\android\build\intermediates\library_manifest\debug\AndroidManifest.xml:2:1-9:12
MERGED from [:react-native-screens] D:\cartExample\node_modules\react-native-screens\android\build\intermediates\library_manifest\debug\AndroidManifest.xml:2:1-11:12
MERGED from [:react-native-safe-area-context] D:\cartExample\node_modules\react-native-safe-area-context\android\build\intermediates\library_manifest\debug\AndroidManifest.xml:2:1-9:12
MERGED from [:react-native-community_async-storage] D:\cartExample\node_modules\@react-native-community\async-storage\android\build\intermediates\library_manifest\debug\AndroidManifest.xml:2:1-9:12
MERGED from [:react-native-community_masked-view] D:\cartExample\node_modules\@react-native-community\masked-view\android\build\intermediates\library_manifest\debug\AndroidManifest.xml:2:1-9:12
MERGED from [:react-native-community_netinfo] D:\cartExample\node_modules\@react-native-community\netinfo\android\build\intermediates\library_manifest\debug\AndroidManifest.xml:2:1-12:12
MERGED from [:react-native-gesture-handler] D:\cartExample\node_modules\react-native-gesture-handler\android\build\intermediates\library_manifest\debug\AndroidManifest.xml:2:1-11:12
MERGED from [com.facebook.react:react-native:0.61.5] C:\Users\Nasir.s\.gradle\caches\transforms-2\files-2.1\c7a98043926264e7d92f3cbc3b017905\AndroidManifest.xml:2:1-13:12
MERGED from [com.google.android.material:material:1.1.0] C:\Users\Nasir.s\.gradle\caches\transforms-2\files-2.1\d645c5b614c7b8b40dbb415679bfca4b\AndroidManifest.xml:17:1-24:12
MERGED from [androidx.appcompat:appcompat:1.1.0] C:\Users\Nasir.s\.gradle\caches\transforms-2\files-2.1\9d22bd378f078653a061659fdc1335bc\AndroidManifest.xml:17:1-24:12
MERGED from [androidx.swiperefreshlayout:swiperefreshlayout:1.1.0-alpha02] C:\Users\Nasir.s\.gradle\caches\transforms-2\files-2.1\568a3fa0370106aca4c47610b73a221c\AndroidManifest.xml:17:1-24:12
MERGED from [org.webkit:android-jsc:r245459] C:\Users\Nasir.s\.gradle\caches\transforms-2\files-2.1\a3334ae3273f42deb92eebf8b9a65d3d\AndroidManifest.xml:2:1-11:12
MERGED from [androidx.viewpager2:viewpager2:1.0.0] C:\Users\Nasir.s\.gradle\caches\transforms-2\files-2.1\2d8b6addf7dee93a0fcb2a4e838a2a60\AndroidManifest.xml:17:1-24:12
MERGED from [androidx.fragment:fragment:1.2.1] C:\Users\Nasir.s\.gradle\caches\transforms-2\files-2.1\e542b87c0af097547af710125c647247\AndroidManifest.xml:17:1-24:12
MERGED from [androidx.coordinatorlayout:coordinatorlayout:1.1.0] C:\Users\Nasir.s\.gradle\caches\transforms-2\files-2.1\793efc2327e7d4960f66b66634e1744d\AndroidManifest.xml:17:1-24:12
MERGED from [androidx.appcompat:appcompat-resources:1.1.0] C:\Users\Nasir.s\.gradle\caches\transforms-2\files-2.1\8cd9d5560bf47f645a04843153532cdf\AndroidManifest.xml:17:1-24:12
MERGED from [androidx.drawerlayout:drawerlayout:1.0.0] C:\Users\Nasir.s\.gradle\caches\transforms-2\files-2.1\9faf950e8ef004c2e73347988e07f910\AndroidManifest.xml:17:1-22:12
MERGED from [androidx.viewpager:viewpager:1.0.0] C:\Users\Nasir.s\.gradle\caches\transforms-2\files-2.1\0af52c52e848de2121a77286502f0cef\AndroidManifest.xml:17:1-22:12
MERGED from [androidx.loader:loader:1.0.0] C:\Users\Nasir.s\.gradle\caches\transforms-2\files-2.1\331a75abad5f104566679451b397fa76\AndroidManifest.xml:17:1-22:12
MERGED from [androidx.activity:activity:1.1.0] C:\Users\Nasir.s\.gradle\caches\transforms-2\files-2.1\0c7d0d14184dab34450a0b3c00eec2c2\AndroidManifest.xml:17:1-24:12
MERGED from [androidx.recyclerview:recyclerview:1.1.0] C:\Users\Nasir.s\.gradle\caches\transforms-2\files-2.1\15abab3d7e5bdfd67d0740846230de77\AndroidManifest.xml:17:1-24:12
MERGED from [androidx.customview:customview:1.0.0] C:\Users\Nasir.s\.gradle\caches\transforms-2\files-2.1\8e91a8b0195f52613e67746fdfb82d1a\AndroidManifest.xml:17:1-22:12
MERGED from [androidx.transition:transition:1.2.0] C:\Users\Nasir.s\.gradle\caches\transforms-2\files-2.1\64971a3df4b8851b81ad08f0bece2741\AndroidManifest.xml:17:1-24:12
MERGED from [androidx.vectordrawable:vectordrawable-animated:1.1.0] C:\Users\Nasir.s\.gradle\caches\transforms-2\files-2.1\4cc201a9f5abb4ee0c1b03ffcdb998a2\AndroidManifest.xml:17:1-24:12
MERGED from [androidx.vectordrawable:vectordrawable:1.1.0] C:\Users\Nasir.s\.gradle\caches\transforms-2\files-2.1\d767ec73b0cb8cbfb8e6c03562021414\AndroidManifest.xml:17:1-24:12
MERGED from [androidx.core:core:1.3.0-alpha02] C:\Users\Nasir.s\.gradle\caches\transforms-2\files-2.1\fdd3aaea942fa8ca4ec1f99b84da8f12\AndroidManifest.xml:17:1-26:12
MERGED from [com.facebook.fresco:fresco:2.0.0] C:\Users\Nasir.s\.gradle\caches\transforms-2\files-2.1\a54fe66fbdd49f1d53b6f7a9bacdd155\AndroidManifest.xml:2:1-9:12
MERGED from [com.facebook.fresco:imagepipeline-okhttp3:2.0.0] C:\Users\Nasir.s\.gradle\caches\transforms-2\files-2.1\20b3f1c0bd6c522eb5b782f829ef97f8\AndroidManifest.xml:2:1-9:12
MERGED from [com.facebook.fresco:drawee:2.0.0] C:\Users\Nasir.s\.gradle\caches\transforms-2\files-2.1\1c816c571d7fd4a3b278e542ba344ab0\AndroidManifest.xml:2:1-9:12
MERGED from [com.facebook.fresco:nativeimagefilters:2.0.0] C:\Users\Nasir.s\.gradle\caches\transforms-2\files-2.1\466e759787a3be61da8bfed4673564cc\AndroidManifest.xml:2:1-9:12
MERGED from [com.facebook.fresco:imagepipeline:2.0.0] C:\Users\Nasir.s\.gradle\caches\transforms-2\files-2.1\5a4ea2b98b9bcc698e027ff805eafdc1\AndroidManifest.xml:2:1-9:12
MERGED from [com.facebook.fresco:nativeimagetranscoder:2.0.0] C:\Users\Nasir.s\.gradle\caches\transforms-2\files-2.1\1a372ff84603598f04504982233df664\AndroidManifest.xml:2:1-9:12
MERGED from [com.facebook.fresco:imagepipeline-base:2.0.0] C:\Users\Nasir.s\.gradle\caches\transforms-2\files-2.1\4737af344c87468e94623b2d2369d38b\AndroidManifest.xml:2:1-9:12
MERGED from [com.facebook.soloader:soloader:0.6.0] C:\Users\Nasir.s\.gradle\caches\transforms-2\files-2.1\0eb5c9c9261a1da1eb1debd416efc2bf\AndroidManifest.xml:2:1-13:12
MERGED from [androidx.interpolator:interpolator:1.0.0] C:\Users\Nasir.s\.gradle\caches\transforms-2\files-2.1\89bc63bec433f293004ab92544ce8523\AndroidManifest.xml:17:1-22:12
MERGED from [androidx.versionedparcelable:versionedparcelable:1.1.0] C:\Users\Nasir.s\.gradle\caches\transforms-2\files-2.1\78eb894d26c66935b7e3e6735f116d74\AndroidManifest.xml:17:1-27:12
MERGED from [androidx.cursoradapter:cursoradapter:1.0.0] C:\Users\Nasir.s\.gradle\caches\transforms-2\files-2.1\e9af9180514635664842cfda50966aa8\AndroidManifest.xml:17:1-22:12
MERGED from [androidx.lifecycle:lifecycle-viewmodel-savedstate:2.2.0] C:\Users\Nasir.s\.gradle\caches\transforms-2\files-2.1\75eafdaa7c8d701a2f549d5ab2ef1bcd\AndroidManifest.xml:17:1-24:12
MERGED from [androidx.lifecycle:lifecycle-viewmodel:2.2.0] C:\Users\Nasir.s\.gradle\caches\transforms-2\files-2.1\0a4ff7f11fa46f10490e7407af9bb094\AndroidManifest.xml:17:1-24:12
MERGED from [androidx.cardview:cardview:1.0.0] C:\Users\Nasir.s\.gradle\caches\transforms-2\files-2.1\379b1d6d3c5cc6d35bf3a4d232298dcb\AndroidManifest.xml:17:1-22:12
MERGED from [androidx.lifecycle:lifecycle-runtime:2.2.0] C:\Users\Nasir.s\.gradle\caches\transforms-2\files-2.1\87b2dfbe48122ddd63dd78c9d849aa7a\AndroidManifest.xml:17:1-24:12
MERGED from [androidx.savedstate:savedstate:1.0.0] C:\Users\Nasir.s\.gradle\caches\transforms-2\files-2.1\ea6f19f169b23f47062dc331414ca580\AndroidManifest.xml:17:1-24:12
MERGED from [androidx.lifecycle:lifecycle-livedata:2.0.0] C:\Users\Nasir.s\.gradle\caches\transforms-2\files-2.1\6f3d22ee50b87d55d9dbaaf94468f2d4\AndroidManifest.xml:17:1-22:12
MERGED from [androidx.lifecycle:lifecycle-livedata-core:2.2.0] C:\Users\Nasir.s\.gradle\caches\transforms-2\files-2.1\42e81bb81a7f158a769d91611f3e8a4a\AndroidManifest.xml:17:1-24:12
MERGED from [androidx.arch.core:core-runtime:2.1.0] C:\Users\Nasir.s\.gradle\caches\transforms-2\files-2.1\93be00a7c07bebe03051ebc8f3caa4ea\AndroidManifest.xml:17:1-24:12
MERGED from [com.facebook.fresco:fbcore:2.0.0] C:\Users\Nasir.s\.gradle\caches\transforms-2\files-2.1\a053dd025f62db24984c68bf96247bae\AndroidManifest.xml:2:1-9:12
INJECTED from D:\cartExample\android\app\src\debug\AndroidManifest.xml:2:1-8:12
INJECTED from D:\cartExample\android\app\src\debug\AndroidManifest.xml:2:1-8:12
INJECTED from D:\cartExample\android\app\src\debug\AndroidManifest.xml:2:1-8:12
	package
		ADDED from D:\cartExample\android\app\src\main\AndroidManifest.xml:2:3-26
		INJECTED from D:\cartExample\android\app\src\main\AndroidManifest.xml
		ADDED from D:\cartExample\android\app\src\main\AndroidManifest.xml:2:3-26
		INJECTED from D:\cartExample\android\app\src\debug\AndroidManifest.xml
	android:versionName
		INJECTED from D:\cartExample\android\app\src\main\AndroidManifest.xml
		ADDED from D:\cartExample\android\app\src\main\AndroidManifest.xml:1:1-36:12
		INJECTED from D:\cartExample\android\app\src\debug\AndroidManifest.xml
	xmlns:tools
		ADDED from D:\cartExample\android\app\src\debug\AndroidManifest.xml:3:5-51
	android:versionCode
		INJECTED from D:\cartExample\android\app\src\main\AndroidManifest.xml
		ADDED from D:\cartExample\android\app\src\main\AndroidManifest.xml:1:1-36:12
		INJECTED from D:\cartExample\android\app\src\debug\AndroidManifest.xml
	xmlns:android
		ADDED from D:\cartExample\android\app\src\main\AndroidManifest.xml:1:11-69
uses-permission#android.permission.INTERNET
ADDED from D:\cartExample\android\app\src\main\AndroidManifest.xml:4:5-67
	android:name
		ADDED from D:\cartExample\android\app\src\main\AndroidManifest.xml:4:22-64
application
ADDED from D:\cartExample\android\app\src\main\AndroidManifest.xml:6:5-34:19
MERGED from D:\cartExample\android\app\src\main\AndroidManifest.xml:6:5-34:19
MERGED from D:\cartExample\android\app\src\main\AndroidManifest.xml:6:5-34:19
MERGED from [:react-native-splash-screen] D:\cartExample\node_modules\react-native-splash-screen\android\build\intermediates\library_manifest\debug\AndroidManifest.xml:11:5-12:19
MERGED from [:react-native-splash-screen] D:\cartExample\node_modules\react-native-splash-screen\android\build\intermediates\library_manifest\debug\AndroidManifest.xml:11:5-12:19
MERGED from [com.facebook.react:react-native:0.61.5] C:\Users\Nasir.s\.gradle\caches\transforms-2\files-2.1\c7a98043926264e7d92f3cbc3b017905\AndroidManifest.xml:11:5-20
MERGED from [com.facebook.react:react-native:0.61.5] C:\Users\Nasir.s\.gradle\caches\transforms-2\files-2.1\c7a98043926264e7d92f3cbc3b017905\AndroidManifest.xml:11:5-20
MERGED from [com.google.android.material:material:1.1.0] C:\Users\Nasir.s\.gradle\caches\transforms-2\files-2.1\d645c5b614c7b8b40dbb415679bfca4b\AndroidManifest.xml:22:5-20
MERGED from [com.google.android.material:material:1.1.0] C:\Users\Nasir.s\.gradle\caches\transforms-2\files-2.1\d645c5b614c7b8b40dbb415679bfca4b\AndroidManifest.xml:22:5-20
MERGED from [androidx.core:core:1.3.0-alpha02] C:\Users\Nasir.s\.gradle\caches\transforms-2\files-2.1\fdd3aaea942fa8ca4ec1f99b84da8f12\AndroidManifest.xml:24:5-89
MERGED from [androidx.core:core:1.3.0-alpha02] C:\Users\Nasir.s\.gradle\caches\transforms-2\files-2.1\fdd3aaea942fa8ca4ec1f99b84da8f12\AndroidManifest.xml:24:5-89
MERGED from [com.facebook.soloader:soloader:0.6.0] C:\Users\Nasir.s\.gradle\caches\transforms-2\files-2.1\0eb5c9c9261a1da1eb1debd416efc2bf\AndroidManifest.xml:11:5-20
MERGED from [com.facebook.soloader:soloader:0.6.0] C:\Users\Nasir.s\.gradle\caches\transforms-2\files-2.1\0eb5c9c9261a1da1eb1debd416efc2bf\AndroidManifest.xml:11:5-20
MERGED from [androidx.versionedparcelable:versionedparcelable:1.1.0] C:\Users\Nasir.s\.gradle\caches\transforms-2\files-2.1\78eb894d26c66935b7e3e6735f116d74\AndroidManifest.xml:24:5-25:19
MERGED from [androidx.versionedparcelable:versionedparcelable:1.1.0] C:\Users\Nasir.s\.gradle\caches\transforms-2\files-2.1\78eb894d26c66935b7e3e6735f116d74\AndroidManifest.xml:24:5-25:19
	android:appComponentFactory
		ADDED from [androidx.core:core:1.3.0-alpha02] C:\Users\Nasir.s\.gradle\caches\transforms-2\files-2.1\fdd3aaea942fa8ca4ec1f99b84da8f12\AndroidManifest.xml:24:18-86
	android:label
		ADDED from D:\cartExample\android\app\src\main\AndroidManifest.xml:8:7-39
		ADDED from D:\cartExample\android\app\src\main\AndroidManifest.xml:8:7-39
	tools:ignore
		ADDED from D:\cartExample\android\app\src\debug\AndroidManifest.xml:7:75-114
	android:roundIcon
		ADDED from D:\cartExample\android\app\src\main\AndroidManifest.xml:10:7-52
		ADDED from D:\cartExample\android\app\src\main\AndroidManifest.xml:10:7-52
	tools:targetApi
		ADDED from D:\cartExample\android\app\src\debug\AndroidManifest.xml:7:54-74
	android:icon
		ADDED from D:\cartExample\android\app\src\main\AndroidManifest.xml:9:7-41
		ADDED from D:\cartExample\android\app\src\main\AndroidManifest.xml:9:7-41
	android:allowBackup
		ADDED from D:\cartExample\android\app\src\main\AndroidManifest.xml:11:7-34
		ADDED from D:\cartExample\android\app\src\main\AndroidManifest.xml:11:7-34
	android:theme
		ADDED from D:\cartExample\android\app\src\main\AndroidManifest.xml:12:7-38
		ADDED from D:\cartExample\android\app\src\main\AndroidManifest.xml:12:7-38
	android:usesCleartextTraffic
		ADDED from D:\cartExample\android\app\src\debug\AndroidManifest.xml:7:18-53
	android:name
		ADDED from D:\cartExample\android\app\src\main\AndroidManifest.xml:7:7-38
		ADDED from D:\cartExample\android\app\src\main\AndroidManifest.xml:7:7-38
activity#com.retailapp.SplashActivity
ADDED from D:\cartExample\android\app\src\main\AndroidManifest.xml:14:9-22:20
	android:label
		ADDED from D:\cartExample\android\app\src\main\AndroidManifest.xml:17:13-45
	android:theme
		ADDED from D:\cartExample\android\app\src\main\AndroidManifest.xml:16:13-47
	android:name
		ADDED from D:\cartExample\android\app\src\main\AndroidManifest.xml:15:13-43
intent-filter#action:name:android.intent.action.MAIN+category:name:android.intent.category.LAUNCHER
ADDED from D:\cartExample\android\app\src\main\AndroidManifest.xml:18:13-21:29
action#android.intent.action.MAIN
ADDED from D:\cartExample\android\app\src\main\AndroidManifest.xml:19:17-69
	android:name
		ADDED from D:\cartExample\android\app\src\main\AndroidManifest.xml:19:25-66
category#android.intent.category.LAUNCHER
ADDED from D:\cartExample\android\app\src\main\AndroidManifest.xml:20:17-77
	android:name
		ADDED from D:\cartExample\android\app\src\main\AndroidManifest.xml:20:27-74
activity#com.retailapp.MainActivity
ADDED from D:\cartExample\android\app\src\main\AndroidManifest.xml:26:9-31:38
	android:label
		ADDED from D:\cartExample\android\app\src\main\AndroidManifest.xml:28:13-45
	android:windowSoftInputMode
		ADDED from D:\cartExample\android\app\src\main\AndroidManifest.xml:30:13-55
	android:exported
		ADDED from D:\cartExample\android\app\src\main\AndroidManifest.xml:31:13-36
	android:configChanges
		ADDED from D:\cartExample\android\app\src\main\AndroidManifest.xml:29:13-83
	android:name
		ADDED from D:\cartExample\android\app\src\main\AndroidManifest.xml:27:13-41
activity#com.facebook.react.devsupport.DevSettingsActivity
ADDED from D:\cartExample\android\app\src\main\AndroidManifest.xml:33:9-86
	android:name
		ADDED from D:\cartExample\android\app\src\main\AndroidManifest.xml:33:19-83
uses-sdk
INJECTED from D:\cartExample\android\app\src\main\AndroidManifest.xml reason: use-sdk injection requested
INJECTED from D:\cartExample\android\app\src\main\AndroidManifest.xml
INJECTED from D:\cartExample\android\app\src\main\AndroidManifest.xml
MERGED from [:react-native-splash-screen] D:\cartExample\node_modules\react-native-splash-screen\android\build\intermediates\library_manifest\debug\AndroidManifest.xml:7:5-9:41
MERGED from [:react-native-splash-screen] D:\cartExample\node_modules\react-native-splash-screen\android\build\intermediates\library_manifest\debug\AndroidManifest.xml:7:5-9:41
MERGED from [:@react-native-community_async-storage] D:\cartExample\node_modules\@react-native-community\async-storage\android\build\intermediates\library_manifest\debug\AndroidManifest.xml:5:5-7:41
MERGED from [:@react-native-community_async-storage] D:\cartExample\node_modules\@react-native-community\async-storage\android\build\intermediates\library_manifest\debug\AndroidManifest.xml:5:5-7:41
MERGED from [:@react-native-community_netinfo] D:\cartExample\node_modules\@react-native-community\netinfo\android\build\intermediates\library_manifest\debug\AndroidManifest.xml:5:5-7:41
MERGED from [:@react-native-community_netinfo] D:\cartExample\node_modules\@react-native-community\netinfo\android\build\intermediates\library_manifest\debug\AndroidManifest.xml:5:5-7:41
MERGED from [:@react-native-community_masked-view] D:\cartExample\node_modules\@react-native-community\masked-view\android\build\intermediates\library_manifest\debug\AndroidManifest.xml:5:5-7:41
MERGED from [:@react-native-community_masked-view] D:\cartExample\node_modules\@react-native-community\masked-view\android\build\intermediates\library_manifest\debug\AndroidManifest.xml:5:5-7:41
MERGED from [:react-native-screens] D:\cartExample\node_modules\react-native-screens\android\build\intermediates\library_manifest\debug\AndroidManifest.xml:7:5-9:41
MERGED from [:react-native-screens] D:\cartExample\node_modules\react-native-screens\android\build\intermediates\library_manifest\debug\AndroidManifest.xml:7:5-9:41
MERGED from [:react-native-safe-area-context] D:\cartExample\node_modules\react-native-safe-area-context\android\build\intermediates\library_manifest\debug\AndroidManifest.xml:5:5-7:41
MERGED from [:react-native-safe-area-context] D:\cartExample\node_modules\react-native-safe-area-context\android\build\intermediates\library_manifest\debug\AndroidManifest.xml:5:5-7:41
MERGED from [:react-native-community_async-storage] D:\cartExample\node_modules\@react-native-community\async-storage\android\build\intermediates\library_manifest\debug\AndroidManifest.xml:5:5-7:41
MERGED from [:react-native-community_async-storage] D:\cartExample\node_modules\@react-native-community\async-storage\android\build\intermediates\library_manifest\debug\AndroidManifest.xml:5:5-7:41
MERGED from [:react-native-community_masked-view] D:\cartExample\node_modules\@react-native-community\masked-view\android\build\intermediates\library_manifest\debug\AndroidManifest.xml:5:5-7:41
MERGED from [:react-native-community_masked-view] D:\cartExample\node_modules\@react-native-community\masked-view\android\build\intermediates\library_manifest\debug\AndroidManifest.xml:5:5-7:41
MERGED from [:react-native-community_netinfo] D:\cartExample\node_modules\@react-native-community\netinfo\android\build\intermediates\library_manifest\debug\AndroidManifest.xml:5:5-7:41
MERGED from [:react-native-community_netinfo] D:\cartExample\node_modules\@react-native-community\netinfo\android\build\intermediates\library_manifest\debug\AndroidManifest.xml:5:5-7:41
MERGED from [:react-native-gesture-handler] D:\cartExample\node_modules\react-native-gesture-handler\android\build\intermediates\library_manifest\debug\AndroidManifest.xml:7:5-9:41
MERGED from [:react-native-gesture-handler] D:\cartExample\node_modules\react-native-gesture-handler\android\build\intermediates\library_manifest\debug\AndroidManifest.xml:7:5-9:41
MERGED from [com.facebook.react:react-native:0.61.5] C:\Users\Nasir.s\.gradle\caches\transforms-2\files-2.1\c7a98043926264e7d92f3cbc3b017905\AndroidManifest.xml:7:5-9:41
MERGED from [com.facebook.react:react-native:0.61.5] C:\Users\Nasir.s\.gradle\caches\transforms-2\files-2.1\c7a98043926264e7d92f3cbc3b017905\AndroidManifest.xml:7:5-9:41
MERGED from [com.google.android.material:material:1.1.0] C:\Users\Nasir.s\.gradle\caches\transforms-2\files-2.1\d645c5b614c7b8b40dbb415679bfca4b\AndroidManifest.xml:20:5-44
MERGED from [com.google.android.material:material:1.1.0] C:\Users\Nasir.s\.gradle\caches\transforms-2\files-2.1\d645c5b614c7b8b40dbb415679bfca4b\AndroidManifest.xml:20:5-44
MERGED from [androidx.appcompat:appcompat:1.1.0] C:\Users\Nasir.s\.gradle\caches\transforms-2\files-2.1\9d22bd378f078653a061659fdc1335bc\AndroidManifest.xml:20:5-22:41
MERGED from [androidx.appcompat:appcompat:1.1.0] C:\Users\Nasir.s\.gradle\caches\transforms-2\files-2.1\9d22bd378f078653a061659fdc1335bc\AndroidManifest.xml:20:5-22:41
MERGED from [androidx.swiperefreshlayout:swiperefreshlayout:1.1.0-alpha02] C:\Users\Nasir.s\.gradle\caches\transforms-2\files-2.1\568a3fa0370106aca4c47610b73a221c\AndroidManifest.xml:20:5-22:41
MERGED from [androidx.swiperefreshlayout:swiperefreshlayout:1.1.0-alpha02] C:\Users\Nasir.s\.gradle\caches\transforms-2\files-2.1\568a3fa0370106aca4c47610b73a221c\AndroidManifest.xml:20:5-22:41
MERGED from [org.webkit:android-jsc:r245459] C:\Users\Nasir.s\.gradle\caches\transforms-2\files-2.1\a3334ae3273f42deb92eebf8b9a65d3d\AndroidManifest.xml:7:5-9:41
MERGED from [org.webkit:android-jsc:r245459] C:\Users\Nasir.s\.gradle\caches\transforms-2\files-2.1\a3334ae3273f42deb92eebf8b9a65d3d\AndroidManifest.xml:7:5-9:41
MERGED from [androidx.viewpager2:viewpager2:1.0.0] C:\Users\Nasir.s\.gradle\caches\transforms-2\files-2.1\2d8b6addf7dee93a0fcb2a4e838a2a60\AndroidManifest.xml:20:5-22:41
MERGED from [androidx.viewpager2:viewpager2:1.0.0] C:\Users\Nasir.s\.gradle\caches\transforms-2\files-2.1\2d8b6addf7dee93a0fcb2a4e838a2a60\AndroidManifest.xml:20:5-22:41
MERGED from [androidx.fragment:fragment:1.2.1] C:\Users\Nasir.s\.gradle\caches\transforms-2\files-2.1\e542b87c0af097547af710125c647247\AndroidManifest.xml:20:5-22:41
MERGED from [androidx.fragment:fragment:1.2.1] C:\Users\Nasir.s\.gradle\caches\transforms-2\files-2.1\e542b87c0af097547af710125c647247\AndroidManifest.xml:20:5-22:41
MERGED from [androidx.coordinatorlayout:coordinatorlayout:1.1.0] C:\Users\Nasir.s\.gradle\caches\transforms-2\files-2.1\793efc2327e7d4960f66b66634e1744d\AndroidManifest.xml:20:5-22:41
MERGED from [androidx.coordinatorlayout:coordinatorlayout:1.1.0] C:\Users\Nasir.s\.gradle\caches\transforms-2\files-2.1\793efc2327e7d4960f66b66634e1744d\AndroidManifest.xml:20:5-22:41
MERGED from [androidx.appcompat:appcompat-resources:1.1.0] C:\Users\Nasir.s\.gradle\caches\transforms-2\files-2.1\8cd9d5560bf47f645a04843153532cdf\AndroidManifest.xml:20:5-22:41
MERGED from [androidx.appcompat:appcompat-resources:1.1.0] C:\Users\Nasir.s\.gradle\caches\transforms-2\files-2.1\8cd9d5560bf47f645a04843153532cdf\AndroidManifest.xml:20:5-22:41
MERGED from [androidx.drawerlayout:drawerlayout:1.0.0] C:\Users\Nasir.s\.gradle\caches\transforms-2\files-2.1\9faf950e8ef004c2e73347988e07f910\AndroidManifest.xml:20:5-44
MERGED from [androidx.drawerlayout:drawerlayout:1.0.0] C:\Users\Nasir.s\.gradle\caches\transforms-2\files-2.1\9faf950e8ef004c2e73347988e07f910\AndroidManifest.xml:20:5-44
MERGED from [androidx.viewpager:viewpager:1.0.0] C:\Users\Nasir.s\.gradle\caches\transforms-2\files-2.1\0af52c52e848de2121a77286502f0cef\AndroidManifest.xml:20:5-44
MERGED from [androidx.viewpager:viewpager:1.0.0] C:\Users\Nasir.s\.gradle\caches\transforms-2\files-2.1\0af52c52e848de2121a77286502f0cef\AndroidManifest.xml:20:5-44
MERGED from [androidx.loader:loader:1.0.0] C:\Users\Nasir.s\.gradle\caches\transforms-2\files-2.1\331a75abad5f104566679451b397fa76\AndroidManifest.xml:20:5-44
MERGED from [androidx.loader:loader:1.0.0] C:\Users\Nasir.s\.gradle\caches\transforms-2\files-2.1\331a75abad5f104566679451b397fa76\AndroidManifest.xml:20:5-44
MERGED from [androidx.activity:activity:1.1.0] C:\Users\Nasir.s\.gradle\caches\transforms-2\files-2.1\0c7d0d14184dab34450a0b3c00eec2c2\AndroidManifest.xml:20:5-22:41
MERGED from [androidx.activity:activity:1.1.0] C:\Users\Nasir.s\.gradle\caches\transforms-2\files-2.1\0c7d0d14184dab34450a0b3c00eec2c2\AndroidManifest.xml:20:5-22:41
MERGED from [androidx.recyclerview:recyclerview:1.1.0] C:\Users\Nasir.s\.gradle\caches\transforms-2\files-2.1\15abab3d7e5bdfd67d0740846230de77\AndroidManifest.xml:20:5-22:41
MERGED from [androidx.recyclerview:recyclerview:1.1.0] C:\Users\Nasir.s\.gradle\caches\transforms-2\files-2.1\15abab3d7e5bdfd67d0740846230de77\AndroidManifest.xml:20:5-22:41
MERGED from [androidx.customview:customview:1.0.0] C:\Users\Nasir.s\.gradle\caches\transforms-2\files-2.1\8e91a8b0195f52613e67746fdfb82d1a\AndroidManifest.xml:20:5-44
MERGED from [androidx.customview:customview:1.0.0] C:\Users\Nasir.s\.gradle\caches\transforms-2\files-2.1\8e91a8b0195f52613e67746fdfb82d1a\AndroidManifest.xml:20:5-44
MERGED from [androidx.transition:transition:1.2.0] C:\Users\Nasir.s\.gradle\caches\transforms-2\files-2.1\64971a3df4b8851b81ad08f0bece2741\AndroidManifest.xml:20:5-22:41
MERGED from [androidx.transition:transition:1.2.0] C:\Users\Nasir.s\.gradle\caches\transforms-2\files-2.1\64971a3df4b8851b81ad08f0bece2741\AndroidManifest.xml:20:5-22:41
MERGED from [androidx.vectordrawable:vectordrawable-animated:1.1.0] C:\Users\Nasir.s\.gradle\caches\transforms-2\files-2.1\4cc201a9f5abb4ee0c1b03ffcdb998a2\AndroidManifest.xml:20:5-22:41
MERGED from [androidx.vectordrawable:vectordrawable-animated:1.1.0] C:\Users\Nasir.s\.gradle\caches\transforms-2\files-2.1\4cc201a9f5abb4ee0c1b03ffcdb998a2\AndroidManifest.xml:20:5-22:41
MERGED from [androidx.vectordrawable:vectordrawable:1.1.0] C:\Users\Nasir.s\.gradle\caches\transforms-2\files-2.1\d767ec73b0cb8cbfb8e6c03562021414\AndroidManifest.xml:20:5-22:41
MERGED from [androidx.vectordrawable:vectordrawable:1.1.0] C:\Users\Nasir.s\.gradle\caches\transforms-2\files-2.1\d767ec73b0cb8cbfb8e6c03562021414\AndroidManifest.xml:20:5-22:41
MERGED from [androidx.core:core:1.3.0-alpha02] C:\Users\Nasir.s\.gradle\caches\transforms-2\files-2.1\fdd3aaea942fa8ca4ec1f99b84da8f12\AndroidManifest.xml:20:5-22:41
MERGED from [androidx.core:core:1.3.0-alpha02] C:\Users\Nasir.s\.gradle\caches\transforms-2\files-2.1\fdd3aaea942fa8ca4ec1f99b84da8f12\AndroidManifest.xml:20:5-22:41
MERGED from [com.facebook.fresco:fresco:2.0.0] C:\Users\Nasir.s\.gradle\caches\transforms-2\files-2.1\a54fe66fbdd49f1d53b6f7a9bacdd155\AndroidManifest.xml:5:5-7:41
MERGED from [com.facebook.fresco:fresco:2.0.0] C:\Users\Nasir.s\.gradle\caches\transforms-2\files-2.1\a54fe66fbdd49f1d53b6f7a9bacdd155\AndroidManifest.xml:5:5-7:41
MERGED from [com.facebook.fresco:imagepipeline-okhttp3:2.0.0] C:\Users\Nasir.s\.gradle\caches\transforms-2\files-2.1\20b3f1c0bd6c522eb5b782f829ef97f8\AndroidManifest.xml:5:5-7:41
MERGED from [com.facebook.fresco:imagepipeline-okhttp3:2.0.0] C:\Users\Nasir.s\.gradle\caches\transforms-2\files-2.1\20b3f1c0bd6c522eb5b782f829ef97f8\AndroidManifest.xml:5:5-7:41
MERGED from [com.facebook.fresco:drawee:2.0.0] C:\Users\Nasir.s\.gradle\caches\transforms-2\files-2.1\1c816c571d7fd4a3b278e542ba344ab0\AndroidManifest.xml:5:5-7:41
MERGED from [com.facebook.fresco:drawee:2.0.0] C:\Users\Nasir.s\.gradle\caches\transforms-2\files-2.1\1c816c571d7fd4a3b278e542ba344ab0\AndroidManifest.xml:5:5-7:41
MERGED from [com.facebook.fresco:nativeimagefilters:2.0.0] C:\Users\Nasir.s\.gradle\caches\transforms-2\files-2.1\466e759787a3be61da8bfed4673564cc\AndroidManifest.xml:5:5-7:41
MERGED from [com.facebook.fresco:nativeimagefilters:2.0.0] C:\Users\Nasir.s\.gradle\caches\transforms-2\files-2.1\466e759787a3be61da8bfed4673564cc\AndroidManifest.xml:5:5-7:41
MERGED from [com.facebook.fresco:imagepipeline:2.0.0] C:\Users\Nasir.s\.gradle\caches\transforms-2\files-2.1\5a4ea2b98b9bcc698e027ff805eafdc1\AndroidManifest.xml:5:5-7:41
MERGED from [com.facebook.fresco:imagepipeline:2.0.0] C:\Users\Nasir.s\.gradle\caches\transforms-2\files-2.1\5a4ea2b98b9bcc698e027ff805eafdc1\AndroidManifest.xml:5:5-7:41
MERGED from [com.facebook.fresco:nativeimagetranscoder:2.0.0] C:\Users\Nasir.s\.gradle\caches\transforms-2\files-2.1\1a372ff84603598f04504982233df664\AndroidManifest.xml:5:5-7:41
MERGED from [com.facebook.fresco:nativeimagetranscoder:2.0.0] C:\Users\Nasir.s\.gradle\caches\transforms-2\files-2.1\1a372ff84603598f04504982233df664\AndroidManifest.xml:5:5-7:41
MERGED from [com.facebook.fresco:imagepipeline-base:2.0.0] C:\Users\Nasir.s\.gradle\caches\transforms-2\files-2.1\4737af344c87468e94623b2d2369d38b\AndroidManifest.xml:5:5-7:41
MERGED from [com.facebook.fresco:imagepipeline-base:2.0.0] C:\Users\Nasir.s\.gradle\caches\transforms-2\files-2.1\4737af344c87468e94623b2d2369d38b\AndroidManifest.xml:5:5-7:41
MERGED from [com.facebook.soloader:soloader:0.6.0] C:\Users\Nasir.s\.gradle\caches\transforms-2\files-2.1\0eb5c9c9261a1da1eb1debd416efc2bf\AndroidManifest.xml:7:5-9:41
MERGED from [com.facebook.soloader:soloader:0.6.0] C:\Users\Nasir.s\.gradle\caches\transforms-2\files-2.1\0eb5c9c9261a1da1eb1debd416efc2bf\AndroidManifest.xml:7:5-9:41
MERGED from [androidx.interpolator:interpolator:1.0.0] C:\Users\Nasir.s\.gradle\caches\transforms-2\files-2.1\89bc63bec433f293004ab92544ce8523\AndroidManifest.xml:20:5-44
MERGED from [androidx.interpolator:interpolator:1.0.0] C:\Users\Nasir.s\.gradle\caches\transforms-2\files-2.1\89bc63bec433f293004ab92544ce8523\AndroidManifest.xml:20:5-44
MERGED from [androidx.versionedparcelable:versionedparcelable:1.1.0] C:\Users\Nasir.s\.gradle\caches\transforms-2\files-2.1\78eb894d26c66935b7e3e6735f116d74\AndroidManifest.xml:20:5-22:41
MERGED from [androidx.versionedparcelable:versionedparcelable:1.1.0] C:\Users\Nasir.s\.gradle\caches\transforms-2\files-2.1\78eb894d26c66935b7e3e6735f116d74\AndroidManifest.xml:20:5-22:41
MERGED from [androidx.cursoradapter:cursoradapter:1.0.0] C:\Users\Nasir.s\.gradle\caches\transforms-2\files-2.1\e9af9180514635664842cfda50966aa8\AndroidManifest.xml:20:5-44
MERGED from [androidx.cursoradapter:cursoradapter:1.0.0] C:\Users\Nasir.s\.gradle\caches\transforms-2\files-2.1\e9af9180514635664842cfda50966aa8\AndroidManifest.xml:20:5-44
MERGED from [androidx.lifecycle:lifecycle-viewmodel-savedstate:2.2.0] C:\Users\Nasir.s\.gradle\caches\transforms-2\files-2.1\75eafdaa7c8d701a2f549d5ab2ef1bcd\AndroidManifest.xml:20:5-22:41
MERGED from [androidx.lifecycle:lifecycle-viewmodel-savedstate:2.2.0] C:\Users\Nasir.s\.gradle\caches\transforms-2\files-2.1\75eafdaa7c8d701a2f549d5ab2ef1bcd\AndroidManifest.xml:20:5-22:41
MERGED from [androidx.lifecycle:lifecycle-viewmodel:2.2.0] C:\Users\Nasir.s\.gradle\caches\transforms-2\files-2.1\0a4ff7f11fa46f10490e7407af9bb094\AndroidManifest.xml:20:5-22:41
MERGED from [androidx.lifecycle:lifecycle-viewmodel:2.2.0] C:\Users\Nasir.s\.gradle\caches\transforms-2\files-2.1\0a4ff7f11fa46f10490e7407af9bb094\AndroidManifest.xml:20:5-22:41
MERGED from [androidx.cardview:cardview:1.0.0] C:\Users\Nasir.s\.gradle\caches\transforms-2\files-2.1\379b1d6d3c5cc6d35bf3a4d232298dcb\AndroidManifest.xml:20:5-44
MERGED from [androidx.cardview:cardview:1.0.0] C:\Users\Nasir.s\.gradle\caches\transforms-2\files-2.1\379b1d6d3c5cc6d35bf3a4d232298dcb\AndroidManifest.xml:20:5-44
MERGED from [androidx.lifecycle:lifecycle-runtime:2.2.0] C:\Users\Nasir.s\.gradle\caches\transforms-2\files-2.1\87b2dfbe48122ddd63dd78c9d849aa7a\AndroidManifest.xml:20:5-22:41
MERGED from [androidx.lifecycle:lifecycle-runtime:2.2.0] C:\Users\Nasir.s\.gradle\caches\transforms-2\files-2.1\87b2dfbe48122ddd63dd78c9d849aa7a\AndroidManifest.xml:20:5-22:41
MERGED from [androidx.savedstate:savedstate:1.0.0] C:\Users\Nasir.s\.gradle\caches\transforms-2\files-2.1\ea6f19f169b23f47062dc331414ca580\AndroidManifest.xml:20:5-22:41
MERGED from [androidx.savedstate:savedstate:1.0.0] C:\Users\Nasir.s\.gradle\caches\transforms-2\files-2.1\ea6f19f169b23f47062dc331414ca580\AndroidManifest.xml:20:5-22:41
MERGED from [androidx.lifecycle:lifecycle-livedata:2.0.0] C:\Users\Nasir.s\.gradle\caches\transforms-2\files-2.1\6f3d22ee50b87d55d9dbaaf94468f2d4\AndroidManifest.xml:20:5-44
MERGED from [androidx.lifecycle:lifecycle-livedata:2.0.0] C:\Users\Nasir.s\.gradle\caches\transforms-2\files-2.1\6f3d22ee50b87d55d9dbaaf94468f2d4\AndroidManifest.xml:20:5-44
MERGED from [androidx.lifecycle:lifecycle-livedata-core:2.2.0] C:\Users\Nasir.s\.gradle\caches\transforms-2\files-2.1\42e81bb81a7f158a769d91611f3e8a4a\AndroidManifest.xml:20:5-22:41
MERGED from [androidx.lifecycle:lifecycle-livedata-core:2.2.0] C:\Users\Nasir.s\.gradle\caches\transforms-2\files-2.1\42e81bb81a7f158a769d91611f3e8a4a\AndroidManifest.xml:20:5-22:41
MERGED from [androidx.arch.core:core-runtime:2.1.0] C:\Users\Nasir.s\.gradle\caches\transforms-2\files-2.1\93be00a7c07bebe03051ebc8f3caa4ea\AndroidManifest.xml:20:5-22:41
MERGED from [androidx.arch.core:core-runtime:2.1.0] C:\Users\Nasir.s\.gradle\caches\transforms-2\files-2.1\93be00a7c07bebe03051ebc8f3caa4ea\AndroidManifest.xml:20:5-22:41
MERGED from [com.facebook.fresco:fbcore:2.0.0] C:\Users\Nasir.s\.gradle\caches\transforms-2\files-2.1\a053dd025f62db24984c68bf96247bae\AndroidManifest.xml:5:5-7:41
MERGED from [com.facebook.fresco:fbcore:2.0.0] C:\Users\Nasir.s\.gradle\caches\transforms-2\files-2.1\a053dd025f62db24984c68bf96247bae\AndroidManifest.xml:5:5-7:41
INJECTED from D:\cartExample\android\app\src\debug\AndroidManifest.xml
INJECTED from D:\cartExample\android\app\src\debug\AndroidManifest.xml
	android:targetSdkVersion
		INJECTED from D:\cartExample\android\app\src\main\AndroidManifest.xml
		INJECTED from D:\cartExample\android\app\src\debug\AndroidManifest.xml
	android:minSdkVersion
		INJECTED from D:\cartExample\android\app\src\main\AndroidManifest.xml
		INJECTED from D:\cartExample\android\app\src\debug\AndroidManifest.xml
uses-permission#android.permission.SYSTEM_ALERT_WINDOW
ADDED from D:\cartExample\android\app\src\debug\AndroidManifest.xml:5:5-77
	android:name
		ADDED from D:\cartExample\android\app\src\debug\AndroidManifest.xml:5:22-75
uses-permission#android.permission.ACCESS_NETWORK_STATE
ADDED from [:@react-native-community_netinfo] D:\cartExample\node_modules\@react-native-community\netinfo\android\build\intermediates\library_manifest\debug\AndroidManifest.xml:9:5-79
MERGED from [:react-native-community_netinfo] D:\cartExample\node_modules\@react-native-community\netinfo\android\build\intermediates\library_manifest\debug\AndroidManifest.xml:9:5-79
MERGED from [:react-native-community_netinfo] D:\cartExample\node_modules\@react-native-community\netinfo\android\build\intermediates\library_manifest\debug\AndroidManifest.xml:9:5-79
	android:name
		ADDED from [:@react-native-community_netinfo] D:\cartExample\node_modules\@react-native-community\netinfo\android\build\intermediates\library_manifest\debug\AndroidManifest.xml:9:22-76
uses-permission#android.permission.ACCESS_WIFI_STATE
ADDED from [:@react-native-community_netinfo] D:\cartExample\node_modules\@react-native-community\netinfo\android\build\intermediates\library_manifest\debug\AndroidManifest.xml:10:5-76
MERGED from [:react-native-community_netinfo] D:\cartExample\node_modules\@react-native-community\netinfo\android\build\intermediates\library_manifest\debug\AndroidManifest.xml:10:5-76
MERGED from [:react-native-community_netinfo] D:\cartExample\node_modules\@react-native-community\netinfo\android\build\intermediates\library_manifest\debug\AndroidManifest.xml:10:5-76
	android:name
		ADDED from [:@react-native-community_netinfo] D:\cartExample\node_modules\@react-native-community\netinfo\android\build\intermediates\library_manifest\debug\AndroidManifest.xml:10:22-73
